Thursday November 29, 2022 | GIS5122: Applied Spatial Statistics
…
Import the data.

L <- "http://myweb.fsu.edu/jelsner/temp/data/FayRain.txt"
( FR.df <- readr::read_table(L) )

## 
## ── Column specification ────────────────────────────────────────────────────────
## cols(
##   lon = col_double(),
##   lat = col_double(),
##   tpi = col_double(),
##   tpm = col_double()
## )

## # A tibble: 803 × 4
##      lon   lat   tpi   tpm
##    <dbl> <dbl> <dbl> <dbl>
##  1 -82.4  29.7  7.4   188.
##  2 -82.3  29.8  9.99  254.
##  3 -82.4  29.6  8.01  203.
##  4 -82.4  29.6  5.71  145.
##  5 -82.1  30.2 10.8   273.
##  6 -82.3  30.3 14.3   364.
##  7 -80.6  28.0 14.0   356.
##  8 -80.5  28.0 14.5   369.
##  9 -80.6  28.4  0       0 
## 10 -80.7  28.3 13.6   346.
## # … with 793 more rows
…
