Thursday October 13, 2022 | GIS5122: Applied Spatial Statistics
…
##             LENGTHUNIT["metre",1],
##             ID["EPSG",8826]],
##         PARAMETER["Northing at false origin",5000000,
##             LENGTHUNIT["metre",1],
##             ID["EPSG",8827]]],
##     CS[Cartesian,2],
##         AXIS["(E)",east,
##             ORDER[1],
##             LENGTHUNIT["metre",1,
##                 ID["EPSG",9001]]],
##         AXIS["(N)",north,
##             ORDER[2],
##             LENGTHUNIT["metre",1,
##                 ID["EPSG",9001]]]]
## # A tibble: 29 × 14
##    city         state_name state_abbr county county_name stplfips_2010 name_2010
##    <chr>        <chr>      <chr>      <chr>  <chr>       <chr>         <chr>    
##  1 Mckinney     Texas      TX         COLLIN Collin      4845744       McKinney…
##  2 Mesquite     Texas      TX         Dallas Dallas      4847892       Mesquite…
##  3 Garland      Texas      TX         Dallas Dallas      4829000       Garland …
##  4 Plano        Texas      TX         Collin Collin      4858016       Plano ci…
##  5 Frisco       Texas      TX         Collin Collin      4827684       Frisco c…
##  6 Dallas       Texas      TX         DALLAS Dallas      4819000       Dallas c…
##  7 Carrollton   Texas      TX         Dallas Dallas      4813024       Carrollt…
##  8 Irving       Texas      TX         Dallas Dallas      4837000       Irving c…
##  9 Denton       Texas      TX         DENTON Denton      4819972       Denton c…
## 10 Grand Prair… Texas      TX         Dallas Dallas      4830464       Grand Pr…
## # … with 19 more rows, and 7 more variables: city_source <chr>,
## #   population_source <chr>, place_type <chr>, year <int>, population <int>,
## #   geometry <POINT [m]>, tr <dbl>
…
