Thurday September 22, 2022 | GIS5122: Applied Spatial Statistics
…
( TorCounts.df <- Torn.sf |>
  sf::st_intersection(Counties.sf) |>
  sf::st_drop_geometry() |>
  dplyr::group_by(GEOID) |>
  dplyr::summarize(nT = dplyr::n()) )

## Warning: attribute variables are assumed to be spatially constant throughout all
## geometries

## # A tibble: 89 × 2
##    GEOID    nT
##    <chr> <int>
##  1 19001     8
##  2 19003     4
##  3 19007     6
##  4 19011     7
##  5 19013     4
##  6 19015     7
##  7 19017     1
##  8 19019     4
##  9 19021     1
## 10 19023     1
## # … with 79 more rows
…
