Thursday September 1, 2022 | GIS5122: Applied Spatial Statistics
…
loc <- "https://raw.githubusercontent.com/allisonhorst/palmerpenguins/master/inst/extdata/penguins.csv"
penguins <- readr::read_csv(file = loc)

## Rows: 344 Columns: 8
## ── Column specification ────────────────────────────────────────────────────────
## Delimiter: ","
## chr (3): species, island, sex
## dbl (5): bill_length_mm, bill_depth_mm, flipper_length_mm, body_mass_g, year
## 
## ℹ Use `spec()` to retrieve the full column specification for this data.
## ℹ Specify the column types or set `show_col_types = FALSE` to quiet this message.

penguins

## # A tibble: 344 × 8
##    species island    bill_length_mm bill_depth_mm flipper_length_mm body_mass_g
##    <chr>   <chr>              <dbl>         <dbl>             <dbl>       <dbl>
##  1 Adelie  Torgersen           39.1          18.7               181        3750
##  2 Adelie  Torgersen           39.5          17.4               186        3800
##  3 Adelie  Torgersen           40.3          18                 195        3250
##  4 Adelie  Torgersen           NA            NA                  NA          NA
##  5 Adelie  Torgersen           36.7          19.3               193        3450
##  6 Adelie  Torgersen           39.3          20.6               190        3650
##  7 Adelie  Torgersen           38.9          17.8               181        3625
##  8 Adelie  Torgersen           39.2          19.6               195        4675
##  9 Adelie  Torgersen           34.1          18.1               193        3475
## 10 Adelie  Torgersen           42            20.2               190        4250
## # … with 334 more rows, and 2 more variables: sex <chr>, year <dbl>
…
table(penguins$species)

## 
##    Adelie Chinstrap    Gentoo 
##       152        68       124

There are 152 Adelie, 68 Chinstrap, and 124 Gentoo penguins.

To create a data frame that includes only the female penguins you type

( df <- penguins |> 
          dplyr::filter(sex == "female") )

## # A tibble: 165 × 8
##    species island    bill_length_mm bill_depth_mm flipper_length_mm body_mass_g
##    <chr>   <chr>              <dbl>         <dbl>             <dbl>       <dbl>
##  1 Adelie  Torgersen           39.5          17.4               186        3800
##  2 Adelie  Torgersen           40.3          18                 195        3250
##  3 Adelie  Torgersen           36.7          19.3               193        3450
##  4 Adelie  Torgersen           38.9          17.8               181        3625
##  5 Adelie  Torgersen           41.1          17.6               182        3200
##  6 Adelie  Torgersen           36.6          17.8               185        3700
##  7 Adelie  Torgersen           38.7          19                 195        3450
##  8 Adelie  Torgersen           34.4          18.4               184        3325
##  9 Adelie  Biscoe              37.8          18.3               174        3400
## 10 Adelie  Biscoe              35.9          19.2               189        3800
## # … with 155 more rows, and 2 more variables: sex <chr>, year <dbl>

To create a data frame that includes only penguins that are not of species Adalie you type

( df <- penguins |> 
          dplyr::filter(species != "Adelie") )

## # A tibble: 192 × 8
##    species island bill_length_mm bill_depth_mm flipper_length_mm body_mass_g
##    <chr>   <chr>           <dbl>         <dbl>             <dbl>       <dbl>
##  1 Gentoo  Biscoe           46.1          13.2               211        4500
##  2 Gentoo  Biscoe           50            16.3               230        5700
##  3 Gentoo  Biscoe           48.7          14.1               210        4450
##  4 Gentoo  Biscoe           50            15.2               218        5700
##  5 Gentoo  Biscoe           47.6          14.5               215        5400
##  6 Gentoo  Biscoe           46.5          13.5               210        4550
##  7 Gentoo  Biscoe           45.4          14.6               211        4800
##  8 Gentoo  Biscoe           46.7          15.3               219        5200
##  9 Gentoo  Biscoe           43.3          13.4               209        4400
## 10 Gentoo  Biscoe           46.8          15.4               215        5150
## # … with 182 more rows, and 2 more variables: sex <chr>, year <dbl>
…
## # A tibble: 1 × 8
##   species island bill_length_mm bill_depth_mm flipper_length_… body_mass_g sex  
##   <chr>   <chr>           <dbl>         <dbl>            <dbl>       <dbl> <chr>
## 1 Gentoo  Biscoe           46.9          14.6              222        4875 fema…
## # … with 1 more variable: year <dbl>

To create a data frame containing rows where the bill length value is NOT missing.

( df <- penguins |> 
          dplyr::filter(!is.na(bill_length_mm)) )

## # A tibble: 342 × 8
##    species island    bill_length_mm bill_depth_mm flipper_length_mm body_mass_g
##    <chr>   <chr>              <dbl>         <dbl>             <dbl>       <dbl>
##  1 Adelie  Torgersen           39.1          18.7               181        3750
##  2 Adelie  Torgersen           39.5          17.4               186        3800
##  3 Adelie  Torgersen           40.3          18                 195        3250
##  4 Adelie  Torgersen           36.7          19.3               193        3450
##  5 Adelie  Torgersen           39.3          20.6               190        3650
##  6 Adelie  Torgersen           38.9          17.8               181        3625
##  7 Adelie  Torgersen           39.2          19.6               195        4675
##  8 Adelie  Torgersen           34.1          18.1               193        3475
##  9 Adelie  Torgersen           42            20.2               190        4250
## 10 Adelie  Torgersen           37.8          17.1               186        3300
## # … with 332 more rows, and 2 more variables: sex <chr>, year <dbl>
…
## Rows: 65162 Columns: 29
## ── Column specification ────────────────────────────────────────────────────────
## Delimiter: ","
## chr   (4): mo, dy, st, stf
## dbl  (23): om, yr, tz, stn, mag, inj, fat, loss, closs, slat, slon, elat, el...
## date  (1): date
## time  (1): time
## 
## ℹ Use `spec()` to retrieve the full column specification for this data.
## ℹ Specify the column types or set `show_col_types = FALSE` to quiet this message.

## # A tibble: 65,162 × 32
##       om    yr mo    dy    date       time      tz st    stf     stn   mag   inj
##    <dbl> <dbl> <chr> <chr> <date>     <time> <dbl> <chr> <chr> <dbl> <dbl> <dbl>
##  1     1  1950 01    03    1950-01-03 11:00      3 MO    29        1     3     3
##  2     2  1950 01    03    1950-01-03 11:55      3 IL    17        2     3     3
##  3     3  1950 01    03    1950-01-03 16:00      3 OH    39        1     1     1
##  4     4  1950 01    13    1950-01-13 05:25      3 AR    5         1     3     1
##  5     5  1950 01    25    1950-01-25 19:30      3 MO    29        2     2     5
##  6     6  1950 01    25    1950-01-25 21:00      3 IL    17        3     2     0
##  7     7  1950 01    26    1950-01-26 18:00      3 TX    48        1     2     2
##  8     8  1950 02    11    1950-02-11 13:10      3 TX    48        2     2     0
##  9     9  1950 02    11    1950-02-11 13:50      3 TX    48        3     3    12
## 10    10  1950 02    11    1950-02-11 21:00      3 TX    48        4     2     5
## # … with 65,152 more rows, and 20 more variables: fat <dbl>, loss <dbl>,
## #   closs <dbl>, slat <dbl>, slon <dbl>, elat <dbl>, elon <dbl>, len <dbl>,
## #   wid <dbl>, ns <dbl>, sn <dbl>, sg <dbl>, f1 <dbl>, f2 <dbl>, f3 <dbl>,
## #   f4 <dbl>, fc <dbl>, Year <dbl>, Month <int>, EF <dbl>

Next create a data frame (df) containing the number of tornadoes by year for the state of Kansas.

( df <- Torn.df |>
  dplyr::filter(st == "KS") |>
  dplyr::group_by(Year) |>
  dplyr::summarize(nT = dplyr::n()) )

## # A tibble: 70 × 2
##     Year    nT
##    <dbl> <int>
##  1  1950    30
##  2  1951    77
##  3  1952    19
##  4  1953    29
##  5  1954    68
##  6  1955    96
##  7  1956    57
##  8  1957    63
##  9  1958    49
## 10  1959    65
## # … with 60 more rows
…
