Thursday October 27, 2022 | GIS5122: Applied Spatial Statistics
…
You get city locations with the us_cities() function from the {USAboundaries} package that extracts a simple feature data frame of cities. The CRS is 4326 and you filter to keep only cities with at least 100K residents in 2010.

( Cities.sf <- USAboundaries::us_cities(state = "TX") |>
  sf::st_transform(crs = sf::st_crs(Torn.sf)) |>
  dplyr::filter(population > 100000) )

## City populations for contemporary data come from the 2010 census.

## Simple feature collection with 29 features and 12 fields
## Geometry type: POINT
## Dimension:     XY
## Bounding box:  xmin: 893306.2 ymin: 5900924 xmax: 2063028 ymax: 6916010
## Projected CRS: NAD83 / Texas Centric Lambert Conformal
## # A tibble: 29 × 13
##    city   state…¹ state…² county count…³ stplf…⁴ name_…⁵ city_…⁶ popul…⁷ place…⁸
##  * <chr>  <chr>   <chr>   <chr>  <chr>   <chr>   <chr>   <chr>   <chr>   <chr>  
##  1 Abile… Texas   TX      TAYLOR Taylor  4801000 Abilen… US Cen… US Cen… Incorp…
##  2 Amari… Texas   TX      multi… Multip… 4803000 Amaril… US Cen… US Cen… Incorp…
##  3 Arlin… Texas   TX      TARRA… Tarrant 4804000 Arling… US Cen… US Cen… Incorp…
##  4 Austin Texas   TX      TRAVIS Travis  4805000 Austin… US Cen… US Cen… Incorp…
##  5 Beaum… Texas   TX      JEFFE… Jeffer… 4807000 Beaumo… US Cen… US Cen… Incorp…
##  6 Brown… Texas   TX      CAMER… Cameron 4810768 Browns… US Cen… US Cen… Incorp…
##  7 Carro… Texas   TX      Dallas Dallas  4813024 Carrol… US Cen… US Cen… Incorp…
##  8 Corpu… Texas   TX      NUECES Nueces  4817000 Corpus… US Cen… US Cen… Incorp…
##  9 Dallas Texas   TX      DALLAS Dallas  4819000 Dallas… US Cen… US Cen… Incorp…
## 10 Denton Texas   TX      DENTON Denton  4819972 Denton… US Cen… US Cen… Incorp…
## # … with 19 more rows, 3 more variables: year <int>, population <int>,
## #   geometry <POINT [m]>, and abbreviated variable names ¹​state_name,
## #   ²​state_abbr, ³​county_name, ⁴​stplfips_2010, ⁵​name_2010, ⁶​city_source,
## #   ⁷​population_source, ⁸​place_type
…
Attach these relative risk values to the Cities.sf object.

( Cities.sf <- Cities.sf |>
  dplyr::mutate(rr = rr.v) |>
  dplyr::arrange(desc(rr)) )

## Simple feature collection with 29 features and 13 fields
## Geometry type: POINT
## Dimension:     XY
## Bounding box:  xmin: 893306.2 ymin: 5900924 xmax: 2063028 ymax: 6916010
## Projected CRS: NAD83 / Texas Centric Lambert Conformal
## # A tibble: 29 × 14
##    city   state…¹ state…² county count…³ stplf…⁴ name_…⁵ city_…⁶ popul…⁷ place…⁸
##    <chr>  <chr>   <chr>   <chr>  <chr>   <chr>   <chr>   <chr>   <chr>   <chr>  
##  1 Mckin… Texas   TX      COLLIN Collin  4845744 McKinn… US Cen… US Cen… Incorp…
##  2 Mesqu… Texas   TX      Dallas Dallas  4847892 Mesqui… US Cen… US Cen… Incorp…
##  3 Garla… Texas   TX      Dallas Dallas  4829000 Garlan… US Cen… US Cen… Incorp…
##  4 Plano  Texas   TX      Collin Collin  4858016 Plano … US Cen… US Cen… Incorp…
##  5 Frisco Texas   TX      Collin Collin  4827684 Frisco… US Cen… US Cen… Incorp…
##  6 Dallas Texas   TX      DALLAS Dallas  4819000 Dallas… US Cen… US Cen… Incorp…
##  7 Carro… Texas   TX      Dallas Dallas  4813024 Carrol… US Cen… US Cen… Incorp…
##  8 Irving Texas   TX      Dallas Dallas  4837000 Irving… US Cen… US Cen… Incorp…
##  9 Denton Texas   TX      DENTON Denton  4819972 Denton… US Cen… US Cen… Incorp…
## 10 Grand… Texas   TX      Dallas Dallas  4830464 Grand … US Cen… US Cen… Incorp…
## # … with 19 more rows, 4 more variables: year <int>, population <int>,
## #   geometry <POINT [m]>, rr <dbl>, and abbreviated variable names ¹​state_name,
## #   ²​state_abbr, ³​county_name, ⁴​stplfips_2010, ⁵​name_2010, ⁶​city_source,
## #   ⁷​population_source, ⁸​place_type
…
