Tuesday February 21, 2023 | GIS5122: Applied Spatial Statistics
…
( TorCounts.df <- Torn.sf |>
  sf::st_intersection(Counties.sf) |>
  sf::st_drop_geometry() |>
  dplyr::group_by(GEOID) |>
  dplyr::summarize(nT = dplyr::n()) )

## Warning: attribute variables are assumed to be spatially constant throughout
## all geometries

## # A tibble: 92 × 2
##    GEOID    nT
##    <chr> <int>
##  1 19001     7
##  2 19003     3
##  3 19007     5
##  4 19009     2
##  5 19011    11
##  6 19013     4
##  7 19015     7
##  8 19017     3
##  9 19019     6
## 10 19021     6
## # … with 82 more rows
…
