Tuesday August 30, 2022 | GIS5122: Applied Spatial Statistics
…
FLp.df

## # A tibble: 117 × 13
##     Year   Jan   Feb   Mar   Apr   May   Jun   Jul   Aug   Sep   Oct   Nov   Dec
##    <dbl> <dbl> <dbl> <dbl> <dbl> <dbl> <dbl> <dbl> <dbl> <dbl> <dbl> <dbl> <dbl>
##  1  1895 3.28   3.24  2.50 4.53   4.25  4.5   7.45  6.10  4.67  3.09 2.65   1.59
##  2  1896 3.93   3.02  2.57 0.498  2.7  11.2   8.22  5.89  4.35  2.96 3.52   2.07
##  3  1897 1.84   6     2.12 4.39   2.28  5.22  7.21  6.83 11.1   4.10 1.75   2.68
##  4  1898 0.704  2.01  1.26 1.32   1.51  3.29  8.95 13.1   5.23  5.88 2.19   3.89
##  5  1899 4.52   5.92  1.90 3.40   1.11  5.80  9.26  6.71  5.13  5.88 0.751  1.94
##  6  1900 3.21   4.37  6.8  4.32   3.89  9.99  7.50  4.49  4.93  5.23 1.22   4.29
##  7  1901 2.34   4.21  5.37 2.14   4.15 10.4   6.42 10.9   8.33  1.71 0.841  2.49
##  8  1902 0.633  4.81  4.29 1.38   2.36  6.22  5.24  4.80  9.54  5.21 3.02   3.52
##  9  1903 5.06   5.58  5.45 0.429  4.74  7.01  6.63  6.96  7.47  1.75 2.7    1.70
## 10  1904 4.96   3.02  1.59 1.66   2.49  6.59  6.27  7.53  4.5   4.41 2.87   1.84
## # … with 107 more rows
## # ℹ Use `print(n = ...)` to see more rows
…
airquality <- dplyr::as_tibble(airquality)
class(airquality)

## [1] "tbl_df"     "tbl"        "data.frame"

Click on airquality in the environment. It is a data frame. We will use the terms ‘tibble’ and ‘data frame’ interchangeably in this class.

Now you are ready to look at some of the commonly used verbs and to see how to apply them to a data frame.

The function select() chooses variables by name. For example, choose the month (Month), day (Day), and temperature (Temp) columns.

airquality |>
  dplyr::select(Month, Day, Temp)

## # A tibble: 153 × 3
##    Month   Day  Temp
##    <int> <int> <int>
##  1     5     1    67
##  2     5     2    72
##  3     5     3    74
##  4     5     4    62
##  5     5     5    56
##  6     5     6    66
##  7     5     7    65
##  8     5     8    59
##  9     5     9    61
## 10     5    10    69
## # … with 143 more rows
## # ℹ Use `print(n = ...)` to see more rows

The result is a data frame containing only the three columns with column names listed in the select() function.

Suppose you want a new data frame with only the temperature and ozone concentrations. You include an assignment operator (<-) and an object name (here df).

df <- airquality |>
        dplyr::select(Temp, Ozone)
df

## # A tibble: 153 × 2
##     Temp Ozone
##    <int> <int>
##  1    67    41
##  2    72    36
##  3    74    12
##  4    62    18
##  5    56    NA
##  6    66    28
##  7    65    23
##  8    59    19
##  9    61     8
## 10    69    NA
## # … with 143 more rows
## # ℹ Use `print(n = ...)` to see more rows

The verbs take data frames as input and return data frames.

The function filter() chooses observations based on specific values. Suppose you want only the observations where the temperature is at or above 80 F.

airquality |>
  dplyr::filter(Temp >= 80)

## # A tibble: 73 × 6
##    Ozone Solar.R  Wind  Temp Month   Day
##    <int>   <int> <dbl> <int> <int> <int>
##  1    45     252  14.9    81     5    29
##  2    NA     186   9.2    84     6     4
##  3    NA     220   8.6    85     6     5
##  4    29     127   9.7    82     6     7
##  5    NA     273   6.9    87     6     8
##  6    71     291  13.8    90     6     9
##  7    39     323  11.5    87     6    10
##  8    NA     259  10.9    93     6    11
##  9    NA     250   9.2    92     6    12
## 10    23     148   8      82     6    13
## # … with 63 more rows
## # ℹ Use `print(n = ...)` to see more rows
…
The function arrange() orders the rows by values given in a particular column.

airquality |>
  dplyr::arrange(Solar.R)

## # A tibble: 153 × 6
##    Ozone Solar.R  Wind  Temp Month   Day
##    <int>   <int> <dbl> <int> <int> <int>
##  1    16       7   6.9    74     7    21
##  2     1       8   9.7    59     5    21
##  3    23      13  12      67     5    28
##  4    23      14   9.2    71     9    22
##  5     8      19  20.1    61     5     9
##  6    14      20  16.6    63     9    25
##  7     9      24  13.8    81     8     2
##  8     9      24  10.9    71     9    14
##  9     4      25   9.7    61     5    23
## 10    13      27  10.3    76     9    18
## # … with 143 more rows
## # ℹ Use `print(n = ...)` to see more rows

The ordering is done from the lowest value of radiation to highest value. Here you see the first 10 rows. Note Month and Day are no longer chronological.

Repeat, but order by the value of air temperature.

airquality |>
  dplyr::arrange(Temp)

## # A tibble: 153 × 6
##    Ozone Solar.R  Wind  Temp Month   Day
##    <int>   <int> <dbl> <int> <int> <int>
##  1    NA      NA  14.3    56     5     5
##  2     6      78  18.4    57     5    18
##  3    NA      66  16.6    57     5    25
##  4    NA      NA   8      57     5    27
##  5    18      65  13.2    58     5    15
##  6    NA     266  14.9    58     5    26
##  7    19      99  13.8    59     5     8
##  8     1       8   9.7    59     5    21
##  9     8      19  20.1    61     5     9
## 10     4      25   9.7    61     5    23
## # … with 143 more rows
## # ℹ Use `print(n = ...)` to see more rows
…
The result is a data frame with three columns and 14 rows arranged by increasing temperatures above 90 F.

The mutate() function adds new columns to the data frame. For example, create a new column called TempC as the temperature in degrees Celsius. Also create a column called WindMS as the wind speed in meters per second.

airquality |>
  dplyr::mutate(TempC = (Temp - 32) * 5/9,
                WindMS = Wind * .44704) 

## # A tibble: 153 × 8
##    Ozone Solar.R  Wind  Temp Month   Day TempC WindMS
##    <int>   <int> <dbl> <int> <int> <int> <dbl>  <dbl>
##  1    41     190   7.4    67     5     1  19.4   3.31
##  2    36     118   8      72     5     2  22.2   3.58
##  3    12     149  12.6    74     5     3  23.3   5.63
##  4    18     313  11.5    62     5     4  16.7   5.14
##  5    NA      NA  14.3    56     5     5  13.3   6.39
##  6    28      NA  14.9    66     5     6  18.9   6.66
##  7    23     299   8.6    65     5     7  18.3   3.84
##  8    19      99  13.8    59     5     8  15     6.17
##  9     8      19  20.1    61     5     9  16.1   8.99
## 10    NA     194   8.6    69     5    10  20.6   3.84
## # … with 143 more rows
## # ℹ Use `print(n = ...)` to see more rows
…
