Tuesday September 13, 2022 | GIS5122: Applied Spatial Statistics
…
world1 <- world |>
  dplyr::select(name_long, pop)
names(world1)

## [1] "name_long" "pop"

The result is a simple feature data frame with the geometry column.

With the dplyr::select() function you can subset and rename columns at the same time. Here you select the columns with names name_long and pop and give the pop column a new name (population).

world |>
  dplyr::select(name_long, 
                population = pop)

## # A tibble: 177 × 2
##    name_long        population
##    <chr>                 <dbl>
##  1 Fiji                 885806
##  2 Tanzania           52234869
##  3 Western Sahara           NA
##  4 Canada             35535348
##  5 United States     318622525
##  6 Kazakhstan         17288285
##  7 Uzbekistan         30757700
##  8 Papua New Guinea    7755785
##  9 Indonesia         255131116
## 10 Argentina          42981515
## # … with 167 more rows
## # ℹ Use `print(n = ...)` to see more rows
…
If you want to create a new column based on existing columns use dplyr::mutate(). For example, if you want to calculate population density for each country divide the population column, here pop, by an area column, here area_km2 with unit area in square kilometers.

world |> 
  dplyr::mutate(Population_Density = pop / area_km2)

## Simple feature collection with 177 features and 11 fields
## Geometry type: MULTIPOLYGON
## Dimension:     XY
## Bounding box:  xmin: -180 ymin: -89.9 xmax: 180 ymax: 83.64513
## Geodetic CRS:  WGS 84
## # A tibble: 177 × 12
##    iso_a2 name_l…¹ conti…² regio…³ subre…⁴ type  area_…⁵     pop lifeExp gdpPe…⁶
##  * <chr>  <chr>    <chr>   <chr>   <chr>   <chr>   <dbl>   <dbl>   <dbl>   <dbl>
##  1 FJ     Fiji     Oceania Oceania Melane… Sove…  1.93e4  8.86e5    70.0   8222.
##  2 TZ     Tanzania Africa  Africa  Easter… Sove…  9.33e5  5.22e7    64.2   2402.
##  3 EH     Western… Africa  Africa  Northe… Inde…  9.63e4 NA         NA       NA 
##  4 CA     Canada   North … Americ… Northe… Sove…  1.00e7  3.55e7    82.0  43079.
##  5 US     United … North … Americ… Northe… Coun…  9.51e6  3.19e8    78.8  51922.
##  6 KZ     Kazakhs… Asia    Asia    Centra… Sove…  2.73e6  1.73e7    71.6  23587.
##  7 UZ     Uzbekis… Asia    Asia    Centra… Sove…  4.61e5  3.08e7    71.0   5371.
##  8 PG     Papua N… Oceania Oceania Melane… Sove…  4.65e5  7.76e6    65.2   3709.
##  9 ID     Indones… Asia    Asia    South-… Sove…  1.82e6  2.55e8    68.9  10003.
## 10 AR     Argenti… South … Americ… South … Sove…  2.78e6  4.30e7    76.3  18798.
## # … with 167 more rows, 2 more variables: geom <MULTIPOLYGON [°]>,
## #   Population_Density <dbl>, and abbreviated variable names ¹​name_long,
## #   ²​continent, ³​region_un, ⁴​subregion, ⁵​area_km2, ⁶​gdpPercap
## # ℹ Use `print(n = ...)` to see more rows, and `colnames()` to see all variable names

world |>
  dplyr::transmute(Population_Density = pop / area_km2)

## Simple feature collection with 177 features and 1 field
## Geometry type: MULTIPOLYGON
## Dimension:     XY
## Bounding box:  xmin: -180 ymin: -89.9 xmax: 180 ymax: 83.64513
## Geodetic CRS:  WGS 84
## # A tibble: 177 × 2
##    Population_Density                                                       geom
##  *              <dbl>                                         <MULTIPOLYGON [°]>
##  1              45.9  (((-180 -16.55522, -179.9174 -16.50178, -179.7933 -16.020…
##  2              56.0  (((33.90371 -0.95, 31.86617 -1.02736, 30.76986 -1.01455, …
##  3              NA    (((-8.66559 27.65643, -8.817828 27.65643, -8.794884 27.12…
##  4               3.54 (((-132.71 54.04001, -133.18 54.16998, -133.2397 53.85108…
##  5              33.5  (((-171.7317 63.78252, -171.7911 63.40585, -171.5531 63.3…
##  6               6.33 (((87.35997 49.21498, 86.82936 49.82667, 85.54127 49.6928…
##  7              66.7  (((55.96819 41.30864, 57.09639 41.32231, 56.93222 41.8260…
##  8              16.7  (((141.0002 -2.600151, 141.0171 -5.859022, 141.0339 -9.11…
##  9             140.   (((104.37 -1.084843, 104.0108 -1.059212, 103.4376 -0.7119…
## 10              15.4  (((-68.63401 -52.63637, -68.63335 -54.8695, -67.56244 -54…
## # … with 167 more rows
## # ℹ Use `print(n = ...)` to see more rows
…
Select the columns name_long and gdpPercap and assign these columns to a new simple feature data frame called world.sf.

( world.sf <- spData::world |>
    dplyr::select(name_long, gdpPercap) )

## Simple feature collection with 177 features and 2 fields
## Geometry type: MULTIPOLYGON
## Dimension:     XY
## Bounding box:  xmin: -180 ymin: -89.9 xmax: 180 ymax: 83.64513
## Geodetic CRS:  WGS 84
## # A tibble: 177 × 3
##    name_long        gdpPercap                                               geom
##    <chr>                <dbl>                                 <MULTIPOLYGON [°]>
##  1 Fiji                 8222. (((-180 -16.55522, -179.9174 -16.50178, -179.7933…
##  2 Tanzania             2402. (((33.90371 -0.95, 31.86617 -1.02736, 30.76986 -1…
##  3 Western Sahara         NA  (((-8.66559 27.65643, -8.817828 27.65643, -8.7948…
##  4 Canada              43079. (((-132.71 54.04001, -133.18 54.16998, -133.2397 …
##  5 United States       51922. (((-171.7317 63.78252, -171.7911 63.40585, -171.5…
##  6 Kazakhstan          23587. (((87.35997 49.21498, 86.82936 49.82667, 85.54127…
##  7 Uzbekistan           5371. (((55.96819 41.30864, 57.09639 41.32231, 56.93222…
##  8 Papua New Guinea     3709. (((141.0002 -2.600151, 141.0171 -5.859022, 141.03…
##  9 Indonesia           10003. (((104.37 -1.084843, 104.0108 -1.059212, 103.4376…
## 10 Argentina           18798. (((-68.63401 -52.63637, -68.63335 -54.8695, -67.5…
## # … with 167 more rows
## # ℹ Use `print(n = ...)` to see more rows

The dplyr::left_join() function takes the data frame named by the argument x = and joins it to the data frame named by the argument y = using a common variable name.

( world_coffee.sf <- dplyr::left_join(x = world.sf, 
                                      y = spData::coffee_data) )

## Joining, by = "name_long"

## Simple feature collection with 177 features and 4 fields
## Geometry type: MULTIPOLYGON
## Dimension:     XY
## Bounding box:  xmin: -180 ymin: -89.9 xmax: 180 ymax: 83.64513
## Geodetic CRS:  WGS 84
## # A tibble: 177 × 5
##    name_long        gdpPercap                               geom coffe…¹ coffe…²
##    <chr>                <dbl>                 <MULTIPOLYGON [°]>   <int>   <int>
##  1 Fiji                 8222. (((-180 -16.55522, -179.9174 -16.…      NA      NA
##  2 Tanzania             2402. (((33.90371 -0.95, 31.86617 -1.02…      81      66
##  3 Western Sahara         NA  (((-8.66559 27.65643, -8.817828 2…      NA      NA
##  4 Canada              43079. (((-132.71 54.04001, -133.18 54.1…      NA      NA
##  5 United States       51922. (((-171.7317 63.78252, -171.7911 …      NA      NA
##  6 Kazakhstan          23587. (((87.35997 49.21498, 86.82936 49…      NA      NA
##  7 Uzbekistan           5371. (((55.96819 41.30864, 57.09639 41…      NA      NA
##  8 Papua New Guinea     3709. (((141.0002 -2.600151, 141.0171 -…     114      74
##  9 Indonesia           10003. (((104.37 -1.084843, 104.0108 -1.…     742     360
## 10 Argentina           18798. (((-68.63401 -52.63637, -68.63335…      NA      NA
## # … with 167 more rows, and abbreviated variable names ¹​coffee_production_2016,
## #   ²​coffee_production_2017
## # ℹ Use `print(n = ...)` to see more rows
…
Although there are only 47 rows of data in spData::coffee_data, all 177 of the country records in world.sf are kept intact in world_coffee.sf. Rows in the first dataset with no match are assigned NA values for the new coffee production variables.

If you want to keep only countries that have a match in the key variable then use dplyr::inner_join(). Here you use the piping operator to implicitly specify the x = argument as the world.sf data frame.

world.sf |>
  dplyr::inner_join(spData::coffee_data)

## Joining, by = "name_long"

## Simple feature collection with 45 features and 4 fields
## Geometry type: MULTIPOLYGON
## Dimension:     XY
## Bounding box:  xmin: -117.1278 ymin: -33.76838 xmax: 156.02 ymax: 35.49401
## Geodetic CRS:  WGS 84
## # A tibble: 45 × 5
##    name_long          gdpPercap                             geom coffe…¹ coffe…²
##    <chr>                  <dbl>               <MULTIPOLYGON [°]>   <int>   <int>
##  1 Tanzania               2402. (((33.90371 -0.95, 31.86617 -1.…      81      66
##  2 Papua New Guinea       3709. (((141.0002 -2.600151, 141.0171…     114      74
##  3 Indonesia             10003. (((104.37 -1.084843, 104.0108 -…     742     360
##  4 Kenya                  2753. (((39.20222 -4.67677, 39.60489 …      60      50
##  5 Dominican Republic    12663. (((-71.7083 18.045, -71.65766 1…       1      NA
##  6 Timor-Leste            6263. (((124.9687 -8.89279, 125.07 -9…      14       2
##  7 Mexico                16623. (((-117.1278 32.53534, -116.721…     151     220
##  8 Brazil                15374. (((-53.37366 -33.76838, -52.712…    3277    2786
##  9 Bolivia                6325. (((-69.52968 -10.95173, -68.665…       3       4
## 10 Peru                  11548. (((-69.89364 -4.298187, -70.394…     585     625
## # … with 35 more rows, and abbreviated variable names ¹​coffee_production_2016,
## #   ²​coffee_production_2017
## # ℹ Use `print(n = ...)` to see more rows
…
