Tuesday October 4, 2022 | GIS5122: Applied Spatial Statistics
…
Then \(\hbox{SIR}_i\) indicates whether region \(i\) has higher (\(\hbox{SIR}_i > 1\)), equal (\(\hbox{SIR}_i = 1\)) or lower (\(\hbox{SIR}_i < 1\)) risk than expected relative to the standard population.

When applied to mortality data, the ratio is known as the standardized mortality ratio (SMR).

The data frame SpatialEpi::pennLC$data contains the number of lung cancer cases and the population of Pennsylvania at county level, stratified on race (white and non-white), gender (female and male) and age (under 40, 40-59, 60-69 and 70+).

You compute the number of cases for all the strata together in each county by aggregating the rows of the data frame by county and adding up the number of cases.

( County.df <- SpatialEpi::pennLC$data |>
  dplyr::group_by(county) |>
  dplyr::summarize(Y = sum(cases)) )

## # A tibble: 67 × 2
##    county        Y
##    <fct>     <int>
##  1 adams        55
##  2 allegheny  1275
##  3 armstrong    49
##  4 beaver      172
##  5 bedford      37
##  6 berks       308
##  7 blair       127
##  8 bradford     59
##  9 bucks       454
## 10 butler      158
## # … with 57 more rows
…
