Tuesday, January 17, 2023 | Untitled
…
FLp.df

## # A tibble: 117 × 13
##     Year   Jan   Feb   Mar   Apr   May   Jun   Jul   Aug   Sep   Oct   Nov   Dec
##    <dbl> <dbl> <dbl> <dbl> <dbl> <dbl> <dbl> <dbl> <dbl> <dbl> <dbl> <dbl> <dbl>
##  1  1895 3.28   3.24  2.50 4.53   4.25  4.5   7.45  6.10  4.67  3.09 2.65   1.59
##  2  1896 3.93   3.02  2.57 0.498  2.7  11.2   8.22  5.89  4.35  2.96 3.52   2.07
##  3  1897 1.84   6     2.12 4.39   2.28  5.22  7.21  6.83 11.1   4.10 1.75   2.68
##  4  1898 0.704  2.01  1.26 1.32   1.51  3.29  8.95 13.1   5.23  5.88 2.19   3.89
##  5  1899 4.52   5.92  1.90 3.40   1.11  5.80  9.26  6.71  5.13  5.88 0.751  1.94
##  6  1900 3.21   4.37  6.8  4.32   3.89  9.99  7.50  4.49  4.93  5.23 1.22   4.29
##  7  1901 2.34   4.21  5.37 2.14   4.15 10.4   6.42 10.9   8.33  1.71 0.841  2.49
##  8  1902 0.633  4.81  4.29 1.38   2.36  6.22  5.24  4.80  9.54  5.21 3.02   3.52
##  9  1903 5.06   5.58  5.45 0.429  4.74  7.01  6.63  6.96  7.47  1.75 2.7    1.70
## 10  1904 4.96   3.02  1.59 1.66   2.49  6.59  6.27  7.53  4.5   4.41 2.87   1.84
## # … with 107 more rows
…
